{
  // Use IntelliSense to learn about possible attributes.
  // Hover to view descriptions of existing attributes.
  "version": "0.2.0",
  "configurations": [
      {
          "type": "kotlin",
          "request": "launch",
          "name": "Kotlin Launch",
          "projectRoot": "${workspaceFolder}",
          "mainClass": "path.to.your.MainClassKt"
      }
  ]
}
